<?xml version="1.0" encoding="UTF-8"?>
<svg width="12px" height="7px" viewBox="0 0 12 7" version="1.1" xmlns="http://www.w3.org/2000/svg" xmlns:xlink="http://www.w3.org/1999/xlink">
    <!-- Generator: Sketch 42 (36781) - http://www.bohemiancoding.com/sketch -->
    <title>&gt; copy 2</title>
    <desc>Created with Sketch.</desc>
    <defs></defs>
    <g id="Symbols" stroke="none" stroke-width="1" fill="none" fill-rule="evenodd">
        <g id="Formfiled_dropdown" transform="translate(-3.000000, -2.000000)" fill="#FC423E">
            <path d="M12.048,5.656 C11.9946664,5.7626672 11.968,5.83733312 11.968,5.88 L11.888,6.024 C11.888,6.03466672 11.8826667,6.04 11.872,6.04 L7.264,10.712 C7.07199904,10.904001 6.83733472,11 6.56,11 C6.28266528,11 6.0373344,10.904001 5.824,10.712 C5.62133232,10.5093323 5.52,10.2720014 5.52,10 C5.52,9.72799864 5.62133232,9.4853344 5.824,9.272 L9.616,5.448 L5.824,1.624 C5.62133232,1.42133232 5.52,1.18133472 5.52,0.904 C5.52,0.62666528 5.61866568,0.38933432 5.816,0.192 C6.01333432,-0.00533432 6.25333192,-0.104 6.536,-0.104 C6.81866808,-0.104 7.06133232,-0.00800096 7.264,0.184 L11.872,4.856 C11.8933334,4.89866688 11.9119999,4.9333332 11.928,4.96 C11.9440001,4.9866668 11.9546666,5.00799992 11.96,5.024 C11.9653334,5.04000008 11.9706666,5.048 11.976,5.048 C11.9813334,5.048 11.984,5.05333328 11.984,5.064 L12.048,5.256 L12.048,5.368 C12.0586667,5.41066688 12.064,5.43733328 12.064,5.448 L12.048,5.528 L12.048,5.656 Z" id="&gt;-copy-2" transform="translate(8.792000, 5.448000) rotate(90.000000) translate(-8.792000, -5.448000) "></path>
        </g>
    </g>
</svg>