<?xml version="1.0" encoding="UTF-8"?>
<svg width="20px" height="14px" viewBox="0 0 20 14" version="1.1" xmlns="http://www.w3.org/2000/svg" xmlns:xlink="http://www.w3.org/1999/xlink">
    <!-- Generator: Sketch 41.2 (35397) - http://www.bohemiancoding.com/sketch -->
    <title>Hamburger</title>
    <desc>Created with Sketch.</desc>
    <defs></defs>
    <g id="Page-1" stroke="none" stroke-width="1" fill="none" fill-rule="evenodd">
        <g id="Affiliated-Institution-Landing" transform="translate(-1445.000000, -53.000000)" fill="#FFFFFF">
            <g id="//-GLOBAL-NAV-V3">
                <g id="Main-NAV">
                    <g id="Menu-Item" transform="translate(1445.000000, 33.000000)">
                        <g id="Hamburger-Icon" transform="translate(0.000000, 20.000000)">
                            <path d="M0,0 L20,0 L20,2 L0,2 L0,0 Z M0,6 L20,6 L20,8 L0,8 L0,6 Z M0,12 L20,12 L20,14 L0,14 L0,12 Z" id="Hamburger"></path>
                        </g>
                    </g>
                </g>
            </g>
        </g>
    </g>
</svg>