<?xml version="1.0" encoding="UTF-8"?>
<svg width="24px" height="16px" viewBox="0 0 24 16" version="1.1" xmlns="http://www.w3.org/2000/svg" xmlns:xlink="http://www.w3.org/1999/xlink">
    <!-- Generator: Sketch 41.2 (35397) - http://www.bohemiancoding.com/sketch -->
    <title>Shape</title>
    <desc>Created with Sketch.</desc>
    <defs></defs>
    <g id="Page-1" stroke="none" stroke-width="1" fill="none" fill-rule="evenodd">
        <g id="College-Of" transform="translate(-1572.000000, -4007.000000)" fill="#000000">
            <g id="//-OPEN-POSITIONS" transform="translate(0.000000, 1990.000000)">
                <g id="Undergrad" transform="translate(250.000000, 110.000000)">
                    <g id="Group-3" transform="translate(1.000000, 191.000000)">
                        <g id="Group-2" transform="translate(0.000000, 1680.000000)">
                            <path d="M1341,50 C1342.1,50 1343,49.1 1343,48 L1343,38 C1343,36.9 1342.1,36 1341,36 L1325,36 C1323.9,36 1323,36.9 1323,38 L1323,48 C1323,49.1 1323.9,50 1325,50 L1321,50 L1321,52 L1345,52 L1345,50 L1341,50 L1341,50 Z M1325,38 L1341,38 L1341,48 L1325,48 L1325,38 L1325,38 Z" id="Shape"></path>
                        </g>
                    </g>
                </g>
            </g>
        </g>
    </g>
</svg>