<svg xmlns="http://www.w3.org/2000/svg" width="41" height="41" viewBox="0 0 41 41">
    <path fill="#EF0030" fill-rule="evenodd" d="M20.5 8.054c-7.342 0-13.219 6.389-12.363 13.898.635 5.59 5.085 10.135 10.66 10.88 4.815.644 9.184-1.491 11.755-5.018.443-.608 1.261-.801 1.912-.425l.717.412c-2.531 4.384-7.255 7.342-12.681 7.342-8.35 0-15.066-6.987-14.622-15.435.398-7.568 6.732-13.689 14.31-13.847 5.556-.116 10.415 2.871 12.993 7.339l-.706.406c-.66.38-1.484.181-1.933-.433-2.265-3.098-5.918-5.119-10.042-5.119zm-1.464 7.321h3.294c1.01 0 1.831.822 1.831 1.83 0 1.01-.821 1.831-1.831 1.831h-3.294v-3.661zm3.66 5.858a2.2 2.2 0 0 1 2.197 2.196 2.2 2.2 0 0 1-2.197 2.196h-3.66v-4.392h3.66zm-5.857 4.392c-.809 0-1.464.656-1.464 1.464v.733h7.321a4.393 4.393 0 0 0 4.393-4.393c0-1.445-.7-2.723-1.777-3.523a4.013 4.013 0 0 0 1.045-2.701 4.026 4.026 0 0 0-4.027-4.026h-6.955v.732c0 .809.655 1.464 1.464 1.464v10.25zM20.5 38.804c-10.093 0-18.304-8.211-18.304-18.304 0-10.092 8.211-18.303 18.304-18.303 10.093 0 18.304 8.211 18.304 18.303 0 10.093-8.211 18.304-18.304 18.304zM20.5 0C9.178 0 0 9.178 0 20.5 0 31.823 9.178 41 20.5 41S41 31.823 41 20.5C41 9.178 31.822 0 20.5 0z"/>
</svg>
