<?xml version="1.0" encoding="UTF-8"?>
<svg width="100%" height="100%" viewBox="0 0 80 80" version="1.1" xmlns="http://www.w3.org/2000/svg" xmlns:xlink="http://www.w3.org/1999/xlink">
    <!-- Generator: Sketch 41.2 (35397) - http://www.bohemiancoding.com/sketch -->
    <title>Online Courses</title>
    <desc>Created with Sketch.</desc>
    <defs></defs>
    <g id="Page-1" stroke="none" stroke-width="1" fill="none" fill-rule="evenodd">
        <g id="Degree-Program" transform="translate(-1579.000000, -281.000000)" fill="#C70E20">
            <path d="M1645.99055,284.955704 C1650.73422,284.955704 1654.59341,288.814892 1654.59341,293.558567 C1654.59341,298.302242 1650.73422,302.16287 1645.99055,302.16287 C1641.24687,302.16287 1637.38624,298.302242 1637.38624,293.558567 C1637.38624,288.814892 1641.24687,284.955704 1645.99055,284.955704 L1645.99055,284.955704 Z M1645.99055,303.237508 C1651.32628,303.237508 1655.66805,298.895741 1655.66805,293.558567 C1655.66805,288.222832 1651.32628,283.881066 1645.99055,283.881066 C1640.65337,283.881066 1636.31161,288.222832 1636.31161,293.558567 C1636.31161,298.895741 1640.65337,303.237508 1645.99055,303.237508 L1645.99055,303.237508 Z M1654.47096,302.543171 C1653.9783,303.008463 1653.45539,303.442064 1652.8907,303.822364 C1655.51823,308.985235 1657.01062,314.819393 1657.01062,320.99928 C1657.01062,341.959035 1639.95903,359.009183 1619.00072,359.009183 C1598.04097,359.009183 1580.99082,341.959035 1580.99082,320.99928 C1580.99082,300.039525 1598.04097,282.989376 1619.00072,282.989376 C1624.95876,282.989376 1630.59989,284.370847 1635.62591,286.825515 C1635.99469,286.257945 1636.41388,285.726389 1636.86909,285.227964 C1631.4887,282.528406 1625.42118,281 1619.00072,281 C1596.94328,281 1579,298.943279 1579,320.99928 C1579,343.05528 1596.94328,361 1619.00072,361 C1641.05672,361 1659,343.05528 1659,320.99928 C1659,314.345458 1657.35779,308.070496 1654.47096,302.543171 L1654.47096,302.543171 Z M1605.63834,310.741244 C1605.63834,310.326371 1605.97686,309.986405 1606.39318,309.986405 L1631.60827,309.986405 C1632.02458,309.986405 1632.3631,310.326371 1632.3631,310.741244 L1632.3631,329.737553 L1605.63834,329.737553 L1605.63834,310.741244 Z M1633.87278,329.747637 L1633.87278,310.741244 C1633.87278,309.492302 1632.85721,308.476726 1631.60827,308.476726 L1606.39318,308.476726 C1605.14279,308.476726 1604.12722,309.492302 1604.12722,310.741244 L1604.12722,329.747637 L1602.39426,329.747637 L1602.39426,330.502476 C1602.39426,332.167732 1603.7498,333.521833 1605.41361,333.521833 L1632.58639,333.521833 C1634.25164,333.521833 1635.60574,332.167732 1635.60574,330.502476 L1635.60574,329.747637 L1633.87278,329.747637 Z" id="Online-Courses"></path>
        </g>
    </g>
</svg>
