<?xml version="1.0" encoding="UTF-8"?>
<svg width="100%" height="100%" viewBox="0 0 14 17" version="1.1" xmlns="http://www.w3.org/2000/svg" xmlns:xlink="http://www.w3.org/1999/xlink">
    <!-- Generator: Sketch 42 (36781) - http://www.bohemiancoding.com/sketch -->
    <title>Shape</title>
    <desc>Created with Sketch.</desc>
    <defs></defs>
    <g id="Mobile" stroke="none" stroke-width="1" fill="none" fill-rule="evenodd">
        <g id="Full-Course-List-Mobile" transform="translate(-20.000000, -447.000000)" fill="#bc0026">
            <g id="file-download" transform="translate(20.000000, 447.000000)">
                <path d="M14,6 L10,6 L10,0 L4,0 L4,6 L0,6 L7,13 L14,6 L14,6 Z M0,15 L0,17 L14,17 L14,15 L0,15 L0,15 Z" id="Shape"></path>
            </g>
        </g>
    </g>
</svg>
